{
    "USERNAME_HAS_BEEN_TAKEN": "ชื่อผู้ใช้นี้ ถูกใช้งานแล้ว",
    "EMAIL_HAS_BEEN_USED": "อีเมลนี้ ถูกใช้งานแล้ว",
    "PASSWORD_RESET_TOKEN_HAS_EXPIRED": "โทเคน หมดอายุแล้ว",
    "EMAIL_DO_NOT_EXIST": "ไม่พบอีเมลนี้ในระบบ",
    "PASSWORD_IS_INCORRECT": "รหัสผ่าน ไม่ถูกต้อง",
    "EMAIL_HAS_NOT_BEEN_CONFIRMED": "กรุณายืนยันอีเมล"
}
